module backend

go 1.14

require (
	cloud.google.com/go v0.56.0 // indirect
	github.com/Masterminds/goutils v1.1.0 // indirect
	github.com/Masterminds/semver v1.5.0 // indirect
	github.com/Masterminds/sprig v2.22.0+incompatible // indirect
	github.com/PuerkitoBio/goquery v1.5.1 // indirect
	github.com/astaxie/beego v1.12.1
	github.com/brianvoe/gofakeit/v4 v4.3.0
	github.com/danilopolani/gocialite v1.0.2
	github.com/gadelkareem/cachita v0.2.1
	github.com/gadelkareem/go-helpers v0.0.0-20200725110331-77a434fc0423
	github.com/gbrlsnchs/jwt/v3 v3.0.0-rc.2
	github.com/go-gomail/gomail v0.0.0-20160411212932-81ebce5c23df
	github.com/go-pg/pg/v9 v9.1.6
	github.com/go-pg/urlstruct v0.4.0 // indirect
	github.com/golang/protobuf v1.4.0 // indirect
	github.com/google/jsonapi v0.0.0-20200226002910-c8283f632fb7
	github.com/google/uuid v1.1.1 // indirect
	github.com/huandu/xstrings v1.3.1 // indirect
	github.com/imdario/mergo v0.3.9 // indirect
	github.com/jaytaylor/html2text v0.0.0-20200412013138-3577fbdbcff7 // indirect
	github.com/lib/pq v1.2.0
	github.com/matcornic/hermes/v2 v2.1.0
	github.com/mattn/go-runewidth v0.0.9 // indirect
	github.com/mediocregopher/radix/v3 v3.5.0 // indirect
	github.com/mitchellh/copystructure v1.0.0 // indirect
	github.com/mitchellh/hashstructure v1.0.0
	github.com/mitchellh/reflectwalk v1.0.1 // indirect
	github.com/oleiade/reflections v1.0.0 // indirect
	github.com/olekukonko/tablewriter v0.0.4 // indirect
	github.com/pquerna/otp v1.2.0
	github.com/rubenv/sql-migrate v0.0.0-20200429072036-ae26b214fa43
	github.com/segmentio/encoding v0.1.11 // indirect
	github.com/shiena/ansicolor v0.0.0-20151119151921-a422bbe96644 // indirect
	github.com/stretchr/testify v1.5.1
	github.com/ttacon/builder v0.0.0-20170518171403-c099f663e1c2 // indirect
	github.com/ttacon/libphonenumber v1.1.0
	github.com/vmihailenco/bufpool v0.1.11 // indirect
	github.com/vmihailenco/msgpack v4.0.4+incompatible // indirect
	github.com/vmihailenco/msgpack/v4 v4.3.11 // indirect
	golang.org/x/crypto v0.0.0-20200429183012-4b2356b1ed79
	golang.org/x/net v0.0.0-20200501053045-e0ff5e5a1de5 // indirect
	golang.org/x/oauth2 v0.0.0-20200107190931-bf48bf16ab8d
	google.golang.org/appengine v1.6.6 // indirect
	gopkg.in/alexcesaro/quotedprintable.v3 v3.0.0-20150716171945-2caba252f4dc // indirect
	gopkg.in/danilopolani/gocialite.v1 v1.0.2
	gopkg.in/gomail.v2 v2.0.0-20160411212932-81ebce5c23df // indirect
	gopkg.in/oleiade/reflections.v1 v1.0.0 // indirect
	gopkg.in/yaml.v2 v2.2.8 // indirect
)

replace github.com/danilopolani/gocialite v1.0.2 => github.com/gadelkareem/gocialite v1.0.3-0.20200507142914-ed600f77f44c
